{
    "centers": [
        {
            "center_id": 701996,
            "name": "Indoor Stadium H (18-44) Only",
            "address": "Jawaharlal Nehru Indoor Stadium Biju Patnaik ColonyIndoor Stadium",
            "state_name": "Odisha",
            "district_name": "Cuttack",
            "block_name": "Cuttack municipal commissioner",
            "pincode": 753001,
            "lat": 20,
            "long": 85,
            "from": "08:00:00",
            "to": "13:00:00",
            "fee_type": "Free",
            "sessions": [
                {
                    "session_id": "1fa45b22-9e33-4ec3-ac0d-5b015d4a3c30",
                    "date": "20-05-2021",
                    "available_capacity": 3,
                    "min_age_limit": 18,
                    "vaccine": "COVISHIELD",
                    "slots": [
                        "08:00AM-09:00AM",
                        "09:00AM-10:00AM",
                        "10:00AM-11:00AM",
                        "11:00AM-01:00PM"
                    ],
                    "available_capacity_dose1": 0,
                    "available_capacity_dose2": 0
                },
                {
                    "session_id": "1b37e9f1-3894-456b-85d8-c933475dd565",
                    "date": "21-05-2021",
                    "available_capacity": 0,
                    "min_age_limit": 18,
                    "vaccine": "COVISHIELD",
                    "slots": [
                        "08:00AM-09:00AM",
                        "09:00AM-10:00AM",
                        "10:00AM-11:00AM",
                        "11:00AM-01:00PM"
                    ],
                    "available_capacity_dose1": 0,
                    "available_capacity_dose2": 0
                },
                {
                    "session_id": "f673b0b4-7834-413d-8c10-1222290ba6c6",
                    "date": "22-05-2021",
                    "available_capacity": 0,
                    "min_age_limit": 18,
                    "vaccine": "COVISHIELD",
                    "slots": [
                        "08:00AM-09:00AM",
                        "09:00AM-10:00AM",
                        "10:00AM-11:00AM",
                        "11:00AM-01:00PM"
                    ],
                    "available_capacity_dose1": 0,
                    "available_capacity_dose2": 0
                }
            ]
        },
        {
            "center_id": 518593,
            "name": "UPHC NAYABAZAR",
            "address": "AT Ward 51 TINIGHARIA NUASAHI Po NAYABAZAR PS CHAULIAGANJA",
            "state_name": "Odisha",
            "district_name": "Cuttack",
            "block_name": "Cuttack municipal commissioner",
            "pincode": 753004,
            "lat": 20,
            "long": 85,
            "from": "08:00:00",
            "to": "13:00:00",
            "fee_type": "Free",
            "sessions": [
                {
                    "session_id": "eaa24363-52c6-42af-a027-de32fe27083d",
                    "date": "20-05-2021",
                    "available_capacity": 0,
                    "min_age_limit": 18,
                    "vaccine": "COVISHIELD",
                    "slots": [
                        "08:00AM-09:00AM",
                        "09:00AM-10:00AM",
                        "10:00AM-11:00AM",
                        "11:00AM-01:00PM"
                    ],
                    "available_capacity_dose1": 0,
                    "available_capacity_dose2": 0
                },
                {
                    "session_id": "43f7e8ad-f418-4c07-881c-7348be053cec",
                    "date": "21-05-2021",
                    "available_capacity": 1,
                    "min_age_limit": 18,
                    "vaccine": "COVISHIELD",
                    "slots": [
                        "08:00AM-09:00AM",
                        "09:00AM-10:00AM",
                        "10:00AM-11:00AM",
                        "11:00AM-01:00PM"
                    ],
                    "available_capacity_dose1": 0,
                    "available_capacity_dose2": 0
                },
                {
                    "session_id": "a6bf4f5d-c096-44d3-ae3e-887a477ad9fe",
                    "date": "22-05-2021",
                    "available_capacity": 0,
                    "min_age_limit": 18,
                    "vaccine": "COVISHIELD",
                    "slots": [
                        "08:00AM-09:00AM",
                        "09:00AM-10:00AM",
                        "10:00AM-11:00AM",
                        "11:00AM-01:00PM"
                    ],
                    "available_capacity_dose1": 0,
                    "available_capacity_dose2": 0
                }
            ]
        },
        {
            "center_id": 518717,
            "name": "Bamphakudha UPHC (18-44)",
            "address": "AT Ward 59 BAMPHAKUDA Po FUL NAKHARA PS CUTTACK SADAR",
            "state_name": "Odisha",
            "district_name": "Cuttack",
            "block_name": "Cuttack municipal commissioner",
            "pincode": 754011,
            "lat": 20,
            "long": 85,
            "from": "08:00:00",
            "to": "13:00:00",
            "fee_type": "Free",
            "sessions": [
                {
                    "session_id": "974d354c-b564-4f74-9324-a4705d91e09b",
                    "date": "20-05-2021",
                    "available_capacity": 0,
                    "min_age_limit": 18,
                    "vaccine": "COVISHIELD",
                    "slots": [
                        "08:00AM-09:00AM",
                        "09:00AM-10:00AM",
                        "10:00AM-11:00AM",
                        "11:00AM-01:00PM"
                    ],
                    "available_capacity_dose1": 0,
                    "available_capacity_dose2": 0
                },
                {
                    "session_id": "46afe5cd-b606-4681-85ae-75271d36da80",
                    "date": "21-05-2021",
                    "available_capacity": 0,
                    "min_age_limit": 18,
                    "vaccine": "COVISHIELD",
                    "slots": [
                        "08:00AM-09:00AM",
                        "09:00AM-10:00AM",
                        "10:00AM-11:00AM",
                        "11:00AM-01:00PM"
                    ],
                    "available_capacity_dose1": 0,
                    "available_capacity_dose2": 0
                },
                {
                    "session_id": "9642b51f-09ee-4a39-9b7d-e8b288a271e2",
                    "date": "22-05-2021",
                    "available_capacity": 0,
                    "min_age_limit": 18,
                    "vaccine": "COVISHIELD",
                    "slots": [
                        "08:00AM-09:00AM",
                        "09:00AM-10:00AM",
                        "10:00AM-11:00AM",
                        "11:00AM-01:00PM"
                    ],
                    "available_capacity_dose1": 0,
                    "available_capacity_dose2": 0
                }
            ]
        },
        {
            "center_id": 698016,
            "name": "Indoor Stadium G (18-44) Only",
            "address": "Jawaharlal Nehru Indoor Stadium",
            "state_name": "Odisha",
            "district_name": "Cuttack",
            "block_name": "Cuttack municipal commissioner",
            "pincode": 753001,
            "lat": 20,
            "long": 85,
            "from": "08:00:00",
            "to": "13:00:00",
            "fee_type": "Free",
            "sessions": [
                {
                    "session_id": "825eb1fe-c358-473c-b136-aa29ac377687",
                    "date": "20-05-2021",
                    "available_capacity": 0,
                    "min_age_limit": 18,
                    "vaccine": "COVISHIELD",
                    "slots": [
                        "08:00AM-09:00AM",
                        "09:00AM-10:00AM",
                        "10:00AM-11:00AM",
                        "11:00AM-01:00PM"
                    ],
                    "available_capacity_dose1": 0,
                    "available_capacity_dose2": 0
                },
                {
                    "session_id": "21e8e939-abf4-4d5a-acf1-593cb0ec2c65",
                    "date": "21-05-2021",
                    "available_capacity": 0,
                    "min_age_limit": 18,
                    "vaccine": "COVISHIELD",
                    "slots": [
                        "08:00AM-09:00AM",
                        "09:00AM-10:00AM",
                        "10:00AM-11:00AM",
                        "11:00AM-01:00PM"
                    ],
                    "available_capacity_dose1": 0,
                    "available_capacity_dose2": 0
                },
                {
                    "session_id": "1772cc54-017f-4429-9664-fbb6c16d75bd",
                    "date": "22-05-2021",
                    "available_capacity": 0,
                    "min_age_limit": 18,
                    "vaccine": "COVISHIELD",
                    "slots": [
                        "08:00AM-09:00AM",
                        "09:00AM-10:00AM",
                        "10:00AM-11:00AM",
                        "11:00AM-01:00PM"
                    ],
                    "available_capacity_dose1": 0,
                    "available_capacity_dose2": 0
                }
            ]
        },
        {
            "center_id": 518482,
            "name": "BIDANASI UPHC 18-44",
            "address": "AT BIDANASI Po BIDANASI PS BIDANASI",
            "state_name": "Odisha",
            "district_name": "Cuttack",
            "block_name": "Cuttack municipal commissioner",
            "pincode": 753014,
            "lat": 20,
            "long": 85,
            "from": "08:00:00",
            "to": "13:00:00",
            "fee_type": "Free",
            "sessions": [
                {
                    "session_id": "4c470caa-35e9-4c52-a873-c8c23130817e",
                    "date": "20-05-2021",
                    "available_capacity": 0,
                    "min_age_limit": 18,
                    "vaccine": "COVISHIELD",
                    "slots": [
                        "08:00AM-09:00AM",
                        "09:00AM-10:00AM",
                        "10:00AM-11:00AM",
                        "11:00AM-01:00PM"
                    ],
                    "available_capacity_dose1": 0,
                    "available_capacity_dose2": 0
                },
                {
                    "session_id": "ce8b8052-d89e-4f40-9007-d50b857157ed",
                    "date": "21-05-2021",
                    "available_capacity": 0,
                    "min_age_limit": 18,
                    "vaccine": "COVISHIELD",
                    "slots": [
                        "08:00AM-09:00AM",
                        "09:00AM-10:00AM",
                        "10:00AM-11:00AM",
                        "11:00AM-01:00PM"
                    ],
                    "available_capacity_dose1": 0,
                    "available_capacity_dose2": 0
                },
                {
                    "session_id": "d60f9cbb-e11b-4a66-b2b8-b565d3677818",
                    "date": "22-05-2021",
                    "available_capacity": 0,
                    "min_age_limit": 18,
                    "vaccine": "COVISHIELD",
                    "slots": [
                        "08:00AM-09:00AM",
                        "09:00AM-10:00AM",
                        "10:00AM-11:00AM",
                        "11:00AM-01:00PM"
                    ],
                    "available_capacity_dose1": 0,
                    "available_capacity_dose2": 0
                }
            ]
        },
        {
            "center_id": 633638,
            "name": "Odiyabazar UPHC (18-44)",
            "address": "AT Odiyabazar",
            "state_name": "Odisha",
            "district_name": "Cuttack",
            "block_name": "Cuttack municipal commissioner",
            "pincode": 753001,
            "lat": 20,
            "long": 85,
            "from": "08:00:00",
            "to": "13:00:00",
            "fee_type": "Free",
            "sessions": [
                {
                    "session_id": "b921d813-a0ac-4900-a2c6-ad9dcca0134e",
                    "date": "20-05-2021",
                    "available_capacity": 1,
                    "min_age_limit": 18,
                    "vaccine": "COVISHIELD",
                    "slots": [
                        "08:00AM-09:00AM",
                        "09:00AM-10:00AM",
                        "10:00AM-11:00AM",
                        "11:00AM-01:00PM"
                    ],
                    "available_capacity_dose1": 0,
                    "available_capacity_dose2": 0
                },
                {
                    "session_id": "18c9ee9f-1076-4427-874d-9e64c540258d",
                    "date": "21-05-2021",
                    "available_capacity": 0,
                    "min_age_limit": 18,
                    "vaccine": "COVISHIELD",
                    "slots": [
                        "08:00AM-09:00AM",
                        "09:00AM-10:00AM",
                        "10:00AM-11:00AM",
                        "11:00AM-01:00PM"
                    ],
                    "available_capacity_dose1": 0,
                    "available_capacity_dose2": 0
                },
                {
                    "session_id": "c0fae82b-5755-4170-a088-4911ead80af9",
                    "date": "22-05-2021",
                    "available_capacity": 0,
                    "min_age_limit": 18,
                    "vaccine": "COVISHIELD",
                    "slots": [
                        "08:00AM-09:00AM",
                        "09:00AM-10:00AM",
                        "10:00AM-11:00AM",
                        "11:00AM-01:00PM"
                    ],
                    "available_capacity_dose1": 0,
                    "available_capacity_dose2": 0
                }
            ]
        },
        {
            "center_id": 496205,
            "name": "Sandhapur UPHC (18-44)",
            "address": "AT SANDHAPUR PO GODISAHI",
            "state_name": "Odisha",
            "district_name": "Cuttack",
            "block_name": "Baranga",
            "pincode": 754005,
            "lat": 20,
            "long": 85,
            "from": "08:00:00",
            "to": "13:00:00",
            "fee_type": "Free",
            "sessions": [
                {
                    "session_id": "a7739331-0864-4ad7-b570-958b2cadb424",
                    "date": "20-05-2021",
                    "available_capacity": 1,
                    "min_age_limit": 18,
                    "vaccine": "COVISHIELD",
                    "slots": [
                        "08:00AM-09:00AM",
                        "09:00AM-10:00AM",
                        "10:00AM-11:00AM",
                        "11:00AM-01:00PM"
                    ],
                    "available_capacity_dose1": 0,
                    "available_capacity_dose2": 1
                },
                {
                    "session_id": "e345d9e9-1b99-46d3-86ba-12d9d1bd032c",
                    "date": "21-05-2021",
                    "available_capacity": 0,
                    "min_age_limit": 18,
                    "vaccine": "COVISHIELD",
                    "slots": [
                        "08:00AM-09:00AM",
                        "09:00AM-10:00AM",
                        "10:00AM-11:00AM",
                        "11:00AM-01:00PM"
                    ],
                    "available_capacity_dose1": 0,
                    "available_capacity_dose2": 0
                },
                {
                    "session_id": "27fd8384-4c83-4226-936a-0584e515f7eb",
                    "date": "22-05-2021",
                    "available_capacity": 0,
                    "min_age_limit": 18,
                    "vaccine": "COVISHIELD",
                    "slots": [
                        "08:00AM-09:00AM",
                        "09:00AM-10:00AM",
                        "10:00AM-11:00AM",
                        "11:00AM-01:00PM"
                    ],
                    "available_capacity_dose1": 0,
                    "available_capacity_dose2": 0
                }
            ]
        },
        {
            "center_id": 518586,
            "name": "CHAULIAGANJA CHC (Govt) 18-44",
            "address": "AT Ward 42 CHAULIAGANJA Po NAYABAZAR PS CHAULIAGANJA",
            "state_name": "Odisha",
            "district_name": "Cuttack",
            "block_name": "Cuttack municipal commissioner",
            "pincode": 753004,
            "lat": 20,
            "long": 85,
            "from": "08:00:00",
            "to": "13:00:00",
            "fee_type": "Free",
            "sessions": [
                {
                    "session_id": "89fb7e71-0d75-4163-9d84-258b9ea446bc",
                    "date": "20-05-2021",
                    "available_capacity": 0,
                    "min_age_limit": 18,
                    "vaccine": "COVISHIELD",
                    "slots": [
                        "08:00AM-09:00AM",
                        "09:00AM-10:00AM",
                        "10:00AM-11:00AM",
                        "11:00AM-01:00PM"
                    ],
                    "available_capacity_dose1": 0,
                    "available_capacity_dose2": 0
                },
                {
                    "session_id": "42d5ee66-1f47-4c00-a7b3-7136d2e27a35",
                    "date": "21-05-2021",
                    "available_capacity": 0,
                    "min_age_limit": 18,
                    "vaccine": "COVISHIELD",
                    "slots": [
                        "08:00AM-09:00AM",
                        "09:00AM-10:00AM",
                        "10:00AM-11:00AM",
                        "11:00AM-01:00PM"
                    ],
                    "available_capacity_dose1": 0,
                    "available_capacity_dose2": 0
                },
                {
                    "session_id": "7a4238a1-28d3-42a8-b8e1-b9d4ee549c86",
                    "date": "22-05-2021",
                    "available_capacity": 0,
                    "min_age_limit": 18,
                    "vaccine": "COVISHIELD",
                    "slots": [
                        "08:00AM-09:00AM",
                        "09:00AM-10:00AM",
                        "10:00AM-11:00AM",
                        "11:00AM-01:00PM"
                    ],
                    "available_capacity_dose1": 0,
                    "available_capacity_dose2": 0
                }
            ]
        },
        {
            "center_id": 518564,
            "name": "Thoria Sahi UPHC (18-44)",
            "address": "AT Ward 33 Po Buxibazar PS Mangalabag",
            "state_name": "Odisha",
            "district_name": "Cuttack",
            "block_name": "Cuttack municipal commissioner",
            "pincode": 753001,
            "lat": 20,
            "long": 85,
            "from": "08:00:00",
            "to": "13:00:00",
            "fee_type": "Free",
            "sessions": [
                {
                    "session_id": "4aabe361-7a64-4da6-ad98-65e8038d42af",
                    "date": "20-05-2021",
                    "available_capacity": 0,
                    "min_age_limit": 18,
                    "vaccine": "COVISHIELD",
                    "slots": [
                        "08:00AM-09:00AM",
                        "09:00AM-10:00AM",
                        "10:00AM-11:00AM",
                        "11:00AM-01:00PM"
                    ],
                    "available_capacity_dose1": 0,
                    "available_capacity_dose2": 0
                },
                {
                    "session_id": "2d6e00d9-7f46-4553-a8fe-6f57d08d7e69",
                    "date": "21-05-2021",
                    "available_capacity": 0,
                    "min_age_limit": 18,
                    "vaccine": "COVISHIELD",
                    "slots": [
                        "08:00AM-09:00AM",
                        "09:00AM-10:00AM",
                        "10:00AM-11:00AM",
                        "11:00AM-01:00PM"
                    ],
                    "available_capacity_dose1": 0,
                    "available_capacity_dose2": 0
                },
                {
                    "session_id": "96fd81aa-3781-4eb6-a320-cdd3404a052d",
                    "date": "22-05-2021",
                    "available_capacity": 0,
                    "min_age_limit": 18,
                    "vaccine": "COVISHIELD",
                    "slots": [
                        "08:00AM-09:00AM",
                        "09:00AM-10:00AM",
                        "10:00AM-11:00AM",
                        "11:00AM-01:00PM"
                    ],
                    "available_capacity_dose1": 0,
                    "available_capacity_dose2": 0
                }
            ]
        },
        {
            "center_id": 620319,
            "name": "CHITTARANJAN SEVA SADAN HOSP",
            "address": "Niali",
            "state_name": "Odisha",
            "district_name": "Cuttack",
            "block_name": "Niali",
            "pincode": 754004,
            "lat": 0,
            "long": 0,
            "from": "09:00:00",
            "to": "18:00:00",
            "fee_type": "Paid",
            "sessions": [
                {
                    "session_id": "d259218e-00df-481a-8350-f50b90e836b2",
                    "date": "20-05-2021",
                    "available_capacity": 9,
                    "min_age_limit": 45,
                    "vaccine": "COVISHIELD",
                    "slots": [
                        "09:00AM-11:00AM",
                        "11:00AM-01:00PM",
                        "01:00PM-03:00PM",
                        "03:00PM-06:00PM"
                    ],
                    "available_capacity_dose1": 0,
                    "available_capacity_dose2": 0
                },
                {
                    "session_id": "bc5804c4-a40b-4c75-b6c1-99b14d6b2eaa",
                    "date": "24-05-2021",
                    "available_capacity": 89,
                    "min_age_limit": 45,
                    "vaccine": "COVISHIELD",
                    "slots": [
                        "09:00AM-11:00AM",
                        "11:00AM-01:00PM",
                        "01:00PM-03:00PM",
                        "03:00PM-06:00PM"
                    ],
                    "available_capacity_dose1": 0,
                    "available_capacity_dose2": -11
                },
                {
                    "session_id": "404e7d4f-c34b-4f62-b09e-628e9638a051",
                    "date": "26-05-2021",
                    "available_capacity": 94,
                    "min_age_limit": 45,
                    "vaccine": "COVISHIELD",
                    "slots": [
                        "09:00AM-11:00AM",
                        "11:00AM-01:00PM",
                        "01:00PM-03:00PM",
                        "03:00PM-06:00PM"
                    ],
                    "available_capacity_dose1": 0,
                    "available_capacity_dose2": -6
                }
            ]
        },
        {
            "center_id": 587525,
            "name": "Indoor Stadium B",
            "address": "Jawaharlal Nehru Indoor Stadium",
            "state_name": "Odisha",
            "district_name": "Cuttack",
            "block_name": "Cuttack municipal commissioner",
            "pincode": 753001,
            "lat": 20,
            "long": 85,
            "from": "15:00:00",
            "to": "18:00:00",
            "fee_type": "Free",
            "sessions": [
                {
                    "session_id": "b65c309a-d891-4dab-bc82-98d08047774d",
                    "date": "20-05-2021",
                    "available_capacity": 0,
                    "min_age_limit": 18,
                    "vaccine": "COVISHIELD",
                    "slots": [
                        "03:00PM-05:00PM",
                        "05:00PM-06:00PM"
                    ],
                    "available_capacity_dose1": 0,
                    "available_capacity_dose2": 0
                },
                {
                    "session_id": "25570c1c-45f4-4cb4-8d48-1eeb2187aa5d",
                    "date": "21-05-2021",
                    "available_capacity": 0,
                    "min_age_limit": 18,
                    "vaccine": "COVISHIELD",
                    "slots": [
                        "03:00PM-05:00PM",
                        "05:00PM-06:00PM"
                    ],
                    "available_capacity_dose1": 0,
                    "available_capacity_dose2": 0
                },
                {
                    "session_id": "ba304a70-b0a0-4a59-b7f0-519097a84b1c",
                    "date": "22-05-2021",
                    "available_capacity": 0,
                    "min_age_limit": 18,
                    "vaccine": "COVISHIELD",
                    "slots": [
                        "03:00PM-05:00PM",
                        "05:00PM-06:00PM"
                    ],
                    "available_capacity_dose1": 0,
                    "available_capacity_dose2": 0
                }
            ]
        },
        {
            "center_id": 518558,
            "name": "Manjulata UPHC (18-44)",
            "address": "AT Ward Manjulata Po Arundoya Market PS Badambadi",
            "state_name": "Odisha",
            "district_name": "Cuttack",
            "block_name": "Cuttack municipal commissioner",
            "pincode": 753012,
            "lat": 20,
            "long": 85,
            "from": "08:00:00",
            "to": "13:00:00",
            "fee_type": "Free",
            "sessions": [
                {
                    "session_id": "8d41638f-134e-445c-a681-8b5f5ae80fe7",
                    "date": "20-05-2021",
                    "available_capacity": 0,
                    "min_age_limit": 18,
                    "vaccine": "COVISHIELD",
                    "slots": [
                        "08:00AM-09:00AM",
                        "09:00AM-10:00AM",
                        "10:00AM-11:00AM",
                        "11:00AM-01:00PM"
                    ],
                    "available_capacity_dose1": 0,
                    "available_capacity_dose2": 0
                },
                {
                    "session_id": "abab27ba-ec7c-4507-9522-9a87a1462f49",
                    "date": "21-05-2021",
                    "available_capacity": 0,
                    "min_age_limit": 18,
                    "vaccine": "COVISHIELD",
                    "slots": [
                        "08:00AM-09:00AM",
                        "09:00AM-10:00AM",
                        "10:00AM-11:00AM",
                        "11:00AM-01:00PM"
                    ],
                    "available_capacity_dose1": 0,
                    "available_capacity_dose2": 0
                },
                {
                    "session_id": "f5284516-640b-43a7-a3e4-fcac53a32aab",
                    "date": "22-05-2021",
                    "available_capacity": 0,
                    "min_age_limit": 18,
                    "vaccine": "COVISHIELD",
                    "slots": [
                        "08:00AM-09:00AM",
                        "09:00AM-10:00AM",
                        "10:00AM-11:00AM",
                        "11:00AM-01:00PM"
                    ],
                    "available_capacity_dose1": 0,
                    "available_capacity_dose2": 0
                }
            ]
        },
        {
            "center_id": 590204,
            "name": "Indoor Stadium F (18-44) Only",
            "address": "Jawaharlal Nehru Indoor Stadium",
            "state_name": "Odisha",
            "district_name": "Cuttack",
            "block_name": "Cuttack municipal commissioner",
            "pincode": 753001,
            "lat": 20,
            "long": 85,
            "from": "08:00:00",
            "to": "13:00:00",
            "fee_type": "Free",
            "sessions": [
                {
                    "session_id": "7ebdf1d4-c78d-40ee-b2da-8a06970c3fde",
                    "date": "20-05-2021",
                    "available_capacity": 0,
                    "min_age_limit": 18,
                    "vaccine": "COVISHIELD",
                    "slots": [
                        "08:00AM-09:00AM",
                        "09:00AM-10:00AM",
                        "10:00AM-11:00AM",
                        "11:00AM-01:00PM"
                    ],
                    "available_capacity_dose1": 0,
                    "available_capacity_dose2": 0
                },
                {
                    "session_id": "aa486ffb-0568-4baa-9eb5-377ad27c0f21",
                    "date": "21-05-2021",
                    "available_capacity": 0,
                    "min_age_limit": 18,
                    "vaccine": "COVISHIELD",
                    "slots": [
                        "08:00AM-09:00AM",
                        "09:00AM-10:00AM",
                        "10:00AM-11:00AM",
                        "11:00AM-01:00PM"
                    ],
                    "available_capacity_dose1": 0,
                    "available_capacity_dose2": 0
                },
                {
                    "session_id": "e60ea3c6-3e1a-4733-b02a-ef6ede118c80",
                    "date": "22-05-2021",
                    "available_capacity": 2,
                    "min_age_limit": 18,
                    "vaccine": "COVISHIELD",
                    "slots": [
                        "08:00AM-09:00AM",
                        "09:00AM-10:00AM",
                        "10:00AM-11:00AM",
                        "11:00AM-01:00PM"
                    ],
                    "available_capacity_dose1": 0,
                    "available_capacity_dose2": 2
                }
            ]
        },
        {
            "center_id": 544524,
            "name": "DHH City Hospital (18-44)",
            "address": "Choudhury Bazar",
            "state_name": "Odisha",
            "district_name": "Cuttack",
            "block_name": "Cuttack municipal commissioner",
            "pincode": 753001,
            "lat": 20,
            "long": 85,
            "from": "08:00:00",
            "to": "13:00:00",
            "fee_type": "Free",
            "sessions": [
                {
                    "session_id": "324e0948-4df6-4c62-9e2a-50ee5a58a4c0",
                    "date": "20-05-2021",
                    "available_capacity": 0,
                    "min_age_limit": 18,
                    "vaccine": "COVISHIELD",
                    "slots": [
                        "08:00AM-09:00AM",
                        "09:00AM-10:00AM",
                        "10:00AM-11:00AM",
                        "11:00AM-01:00PM"
                    ],
                    "available_capacity_dose1": 0,
                    "available_capacity_dose2": 0
                },
                {
                    "session_id": "0e261c9c-504e-43a0-9f2b-c90db941a7e1",
                    "date": "21-05-2021",
                    "available_capacity": 0,
                    "min_age_limit": 18,
                    "vaccine": "COVISHIELD",
                    "slots": [
                        "08:00AM-09:00AM",
                        "09:00AM-10:00AM",
                        "10:00AM-11:00AM",
                        "11:00AM-01:00PM"
                    ],
                    "available_capacity_dose1": 0,
                    "available_capacity_dose2": 0
                },
                {
                    "session_id": "feac5312-c6d2-4a12-b985-4ed3ea7fcddd",
                    "date": "22-05-2021",
                    "available_capacity": 0,
                    "min_age_limit": 18,
                    "vaccine": "COVISHIELD",
                    "slots": [
                        "08:00AM-09:00AM",
                        "09:00AM-10:00AM",
                        "10:00AM-11:00AM",
                        "11:00AM-01:00PM"
                    ],
                    "available_capacity_dose1": 0,
                    "available_capacity_dose2": 0
                }
            ]
        },
        {
            "center_id": 585741,
            "name": "Indoor Stadium A (18-44) Only",
            "address": "Jawaharlal Nehru Indoor Stadium",
            "state_name": "Odisha",
            "district_name": "Cuttack",
            "block_name": "Cuttack municipal commissioner",
            "pincode": 753001,
            "lat": 20,
            "long": 85,
            "from": "08:00:00",
            "to": "13:00:00",
            "fee_type": "Free",
            "sessions": [
                {
                    "session_id": "464c0d72-cc16-413d-b965-058821d47eb4",
                    "date": "20-05-2021",
                    "available_capacity": 0,
                    "min_age_limit": 18,
                    "vaccine": "COVISHIELD",
                    "slots": [
                        "08:00AM-09:00AM",
                        "09:00AM-10:00AM",
                        "10:00AM-11:00AM",
                        "11:00AM-01:00PM"
                    ],
                    "available_capacity_dose1": 0,
                    "available_capacity_dose2": 0
                },
                {
                    "session_id": "c9db586b-ad9e-486c-a52e-2c66f5d9a8bd",
                    "date": "21-05-2021",
                    "available_capacity": 1,
                    "min_age_limit": 18,
                    "vaccine": "COVISHIELD",
                    "slots": [
                        "08:00AM-09:00AM",
                        "09:00AM-10:00AM",
                        "10:00AM-11:00AM",
                        "11:00AM-01:00PM"
                    ],
                    "available_capacity_dose1": 0,
                    "available_capacity_dose2": 1
                },
                {
                    "session_id": "3073f634-d35b-4630-8d17-050420d86b6e",
                    "date": "22-05-2021",
                    "available_capacity": 0,
                    "min_age_limit": 18,
                    "vaccine": "COVISHIELD",
                    "slots": [
                        "08:00AM-09:00AM",
                        "09:00AM-10:00AM",
                        "10:00AM-11:00AM",
                        "11:00AM-01:00PM"
                    ],
                    "available_capacity_dose1": 0,
                    "available_capacity_dose2": 0
                }
            ]
        },
        {
            "center_id": 518694,
            "name": "Brajarambha UPHC (18-44)",
            "address": "AT MuradkhanpATna Po College Square PS Malgodam",
            "state_name": "Odisha",
            "district_name": "Cuttack",
            "block_name": "Cuttack municipal commissioner",
            "pincode": 753003,
            "lat": 20,
            "long": 85,
            "from": "08:00:00",
            "to": "13:00:00",
            "fee_type": "Free",
            "sessions": [
                {
                    "session_id": "193d3dde-a3d2-4324-9884-cfd6cfe83f2d",
                    "date": "20-05-2021",
                    "available_capacity": 0,
                    "min_age_limit": 18,
                    "vaccine": "COVISHIELD",
                    "slots": [
                        "08:00AM-09:00AM",
                        "09:00AM-10:00AM",
                        "10:00AM-11:00AM",
                        "11:00AM-01:00PM"
                    ],
                    "available_capacity_dose1": 0,
                    "available_capacity_dose2": 0
                },
                {
                    "session_id": "456e8023-f8f3-4869-95ad-b48aad914428",
                    "date": "21-05-2021",
                    "available_capacity": 0,
                    "min_age_limit": 18,
                    "vaccine": "COVISHIELD",
                    "slots": [
                        "08:00AM-09:00AM",
                        "09:00AM-10:00AM",
                        "10:00AM-11:00AM",
                        "11:00AM-01:00PM"
                    ],
                    "available_capacity_dose1": 0,
                    "available_capacity_dose2": 0
                },
                {
                    "session_id": "4775c094-2223-443a-b3d8-05301a0c51a3",
                    "date": "22-05-2021",
                    "available_capacity": 0,
                    "min_age_limit": 18,
                    "vaccine": "COVISHIELD",
                    "slots": [
                        "08:00AM-09:00AM",
                        "09:00AM-10:00AM",
                        "10:00AM-11:00AM",
                        "11:00AM-01:00PM"
                    ],
                    "available_capacity_dose1": 0,
                    "available_capacity_dose2": 0
                }
            ]
        },
        {
            "center_id": 576914,
            "name": "Bidyadharpur CRRI (18-44)",
            "address": "Bidyadharpur CRRI",
            "state_name": "Odisha",
            "district_name": "Cuttack",
            "block_name": "Cuttack municipal commissioner",
            "pincode": 753004,
            "lat": 20,
            "long": 85,
            "from": "08:00:00",
            "to": "13:00:00",
            "fee_type": "Free",
            "sessions": [
                {
                    "session_id": "7bb42421-2122-4064-a2cf-c92dbb746291",
                    "date": "20-05-2021",
                    "available_capacity": 0,
                    "min_age_limit": 18,
                    "vaccine": "COVISHIELD",
                    "slots": [
                        "08:00AM-09:00AM",
                        "09:00AM-10:00AM",
                        "10:00AM-11:00AM",
                        "11:00AM-01:00PM"
                    ],
                    "available_capacity_dose1": 0,
                    "available_capacity_dose2": 0
                },
                {
                    "session_id": "0a4fea0b-92eb-473c-b24d-4fdb6df54e42",
                    "date": "21-05-2021",
                    "available_capacity": 0,
                    "min_age_limit": 18,
                    "vaccine": "COVISHIELD",
                    "slots": [
                        "08:00AM-09:00AM",
                        "09:00AM-10:00AM",
                        "10:00AM-11:00AM",
                        "11:00AM-01:00PM"
                    ],
                    "available_capacity_dose1": 0,
                    "available_capacity_dose2": 0
                },
                {
                    "session_id": "d5a985b3-bac6-4180-a1b3-663d4196e59a",
                    "date": "22-05-2021",
                    "available_capacity": 0,
                    "min_age_limit": 18,
                    "vaccine": "COVISHIELD",
                    "slots": [
                        "08:00AM-09:00AM",
                        "09:00AM-10:00AM",
                        "10:00AM-11:00AM",
                        "11:00AM-01:00PM"
                    ],
                    "available_capacity_dose1": 0,
                    "available_capacity_dose2": 0
                }
            ]
        },
        {
            "center_id": 628821,
            "name": "Tulasipur UPHC (GOVT) 18-44",
            "address": "AT HindolakotiTulasipur",
            "state_name": "Odisha",
            "district_name": "Cuttack",
            "block_name": "Cuttack municipal commissioner",
            "pincode": 753008,
            "lat": 20,
            "long": 85,
            "from": "08:00:00",
            "to": "13:00:00",
            "fee_type": "Free",
            "sessions": [
                {
                    "session_id": "cbecca70-d432-4eef-85ba-55186757a87f",
                    "date": "20-05-2021",
                    "available_capacity": 0,
                    "min_age_limit": 18,
                    "vaccine": "COVISHIELD",
                    "slots": [
                        "08:00AM-09:00AM",
                        "09:00AM-10:00AM",
                        "10:00AM-11:00AM",
                        "11:00AM-01:00PM"
                    ],
                    "available_capacity_dose1": 0,
                    "available_capacity_dose2": 0
                },
                {
                    "session_id": "efeef3ff-36b5-41c6-9fc6-513336727704",
                    "date": "21-05-2021",
                    "available_capacity": 0,
                    "min_age_limit": 18,
                    "vaccine": "COVISHIELD",
                    "slots": [
                        "08:00AM-09:00AM",
                        "09:00AM-10:00AM",
                        "10:00AM-11:00AM",
                        "11:00AM-01:00PM"
                    ],
                    "available_capacity_dose1": 0,
                    "available_capacity_dose2": 0
                },
                {
                    "session_id": "ee5f4262-7304-498c-8f60-a9604df9e690",
                    "date": "22-05-2021",
                    "available_capacity": 0,
                    "min_age_limit": 18,
                    "vaccine": "COVISHIELD",
                    "slots": [
                        "08:00AM-09:00AM",
                        "09:00AM-10:00AM",
                        "10:00AM-11:00AM",
                        "11:00AM-01:00PM"
                    ],
                    "available_capacity_dose1": 0,
                    "available_capacity_dose2": 0
                }
            ]
        },
        {
            "center_id": 518695,
            "name": "Nimpur Uphc (18-44)",
            "address": "AT Nimpur Po JagATpur PS JagATpur",
            "state_name": "Odisha",
            "district_name": "Cuttack",
            "block_name": "Cuttack municipal commissioner",
            "pincode": 754021,
            "lat": 20,
            "long": 85,
            "from": "08:00:00",
            "to": "13:00:00",
            "fee_type": "Free",
            "sessions": [
                {
                    "session_id": "49427eb3-2914-4948-9d37-898d32f79275",
                    "date": "20-05-2021",
                    "available_capacity": 0,
                    "min_age_limit": 18,
                    "vaccine": "COVISHIELD",
                    "slots": [
                        "08:00AM-09:00AM",
                        "09:00AM-10:00AM",
                        "10:00AM-11:00AM",
                        "11:00AM-01:00PM"
                    ],
                    "available_capacity_dose1": 0,
                    "available_capacity_dose2": 0
                },
                {
                    "session_id": "22fd6f35-3b69-4722-82fd-5867c40cf625",
                    "date": "21-05-2021",
                    "available_capacity": 1,
                    "min_age_limit": 18,
                    "vaccine": "COVISHIELD",
                    "slots": [
                        "08:00AM-09:00AM",
                        "09:00AM-10:00AM",
                        "10:00AM-11:00AM",
                        "11:00AM-01:00PM"
                    ],
                    "available_capacity_dose1": 0,
                    "available_capacity_dose2": 0
                },
                {
                    "session_id": "23df3e28-dc6e-4600-bb6b-0f5720345183",
                    "date": "22-05-2021",
                    "available_capacity": 1,
                    "min_age_limit": 18,
                    "vaccine": "COVISHIELD",
                    "slots": [
                        "08:00AM-09:00AM",
                        "09:00AM-10:00AM",
                        "10:00AM-11:00AM",
                        "11:00AM-01:00PM"
                    ],
                    "available_capacity_dose1": 0,
                    "available_capacity_dose2": 1
                }
            ]
        },
        {
            "center_id": 587529,
            "name": "Indoor Stadium C",
            "address": "Jawaharlal Nehru Indoor Stadium",
            "state_name": "Odisha",
            "district_name": "Cuttack",
            "block_name": "Cuttack municipal commissioner",
            "pincode": 753001,
            "lat": 20,
            "long": 20,
            "from": "15:00:00",
            "to": "18:00:00",
            "fee_type": "Free",
            "sessions": [
                {
                    "session_id": "7783abe9-6c47-4d9f-afa9-4079abda665b",
                    "date": "20-05-2021",
                    "available_capacity": 1,
                    "min_age_limit": 18,
                    "vaccine": "COVISHIELD",
                    "slots": [
                        "03:00PM-05:00PM",
                        "05:00PM-06:00PM"
                    ],
                    "available_capacity_dose1": 0,
                    "available_capacity_dose2": 0
                },
                {
                    "session_id": "a137faee-19dc-4eaa-ae8b-154430783e23",
                    "date": "21-05-2021",
                    "available_capacity": 0,
                    "min_age_limit": 18,
                    "vaccine": "COVISHIELD",
                    "slots": [
                        "03:00PM-05:00PM",
                        "05:00PM-06:00PM"
                    ],
                    "available_capacity_dose1": 0,
                    "available_capacity_dose2": 0
                },
                {
                    "session_id": "7c81a62f-a255-4d88-b1c0-919daaeee76e",
                    "date": "22-05-2021",
                    "available_capacity": 0,
                    "min_age_limit": 18,
                    "vaccine": "COVISHIELD",
                    "slots": [
                        "03:00PM-05:00PM",
                        "05:00PM-06:00PM"
                    ],
                    "available_capacity_dose1": 0,
                    "available_capacity_dose2": 0
                }
            ]
        },
        {
            "center_id": 518492,
            "name": "UCHC CDA 18-44",
            "address": "AT Ward 5 UCHC CDA Po BIDANASI PS MARKATNAGAR",
            "state_name": "Odisha",
            "district_name": "Cuttack",
            "block_name": "Cuttack municipal commissioner",
            "pincode": 753014,
            "lat": 28,
            "long": 50,
            "from": "08:00:00",
            "to": "13:00:00",
            "fee_type": "Free",
            "sessions": [
                {
                    "session_id": "f3a31c59-1b4d-43d4-917f-7f7fe8c5078a",
                    "date": "20-05-2021",
                    "available_capacity": 0,
                    "min_age_limit": 18,
                    "vaccine": "COVISHIELD",
                    "slots": [
                        "08:00AM-09:00AM",
                        "09:00AM-10:00AM",
                        "10:00AM-11:00AM",
                        "11:00AM-01:00PM"
                    ],
                    "available_capacity_dose1": 0,
                    "available_capacity_dose2": 0
                },
                {
                    "session_id": "8695766e-6847-4726-a3c2-964515c963e9",
                    "date": "21-05-2021",
                    "available_capacity": 0,
                    "min_age_limit": 18,
                    "vaccine": "COVISHIELD",
                    "slots": [
                        "08:00AM-09:00AM",
                        "09:00AM-10:00AM",
                        "10:00AM-11:00AM",
                        "11:00AM-01:00PM"
                    ],
                    "available_capacity_dose1": 0,
                    "available_capacity_dose2": 0
                },
                {
                    "session_id": "f74979f3-1432-420c-8fac-bd05a6a84124",
                    "date": "22-05-2021",
                    "available_capacity": 0,
                    "min_age_limit": 18,
                    "vaccine": "COVISHIELD",
                    "slots": [
                        "08:00AM-09:00AM",
                        "09:00AM-10:00AM",
                        "10:00AM-11:00AM",
                        "11:00AM-01:00PM"
                    ],
                    "available_capacity_dose1": 0,
                    "available_capacity_dose2": 0
                }
            ]
        },
        {
            "center_id": 620284,
            "name": "SHARADA CLINIC NURSING HOME",
            "address": "Rajendranagar,cuttack",
            "state_name": "Odisha",
            "district_name": "Cuttack",
            "block_name": "Cuttack municipal commissioner",
            "pincode": 753010,
            "lat": 0,
            "long": 0,
            "from": "09:00:00",
            "to": "18:00:00",
            "fee_type": "Paid",
            "sessions": [
                {
                    "session_id": "8e1ba28a-05c5-42f5-8a3f-84a95997199c",
                    "date": "21-05-2021",
                    "available_capacity": 1,
                    "min_age_limit": 45,
                    "vaccine": "COVISHIELD",
                    "slots": [
                        "09:00AM-11:00AM",
                        "11:00AM-01:00PM",
                        "01:00PM-03:00PM",
                        "03:00PM-06:00PM"
                    ],
                    "available_capacity_dose1": 0,
                    "available_capacity_dose2": 0
                }
            ]
        },
        {
            "center_id": 594531,
            "name": "ARC CHARIBATIA",
            "address": "ARC CHARBATIA",
            "state_name": "Odisha",
            "district_name": "Cuttack",
            "block_name": "Tangi-Choudwar",
            "pincode": 754028,
            "lat": 0,
            "long": 0,
            "from": "08:00:00",
            "to": "18:30:00",
            "fee_type": "Free",
            "sessions": [
                {
                    "session_id": "d608bdc7-5ff4-4344-88c2-3fd9ed3d32e0",
                    "date": "24-05-2021",
                    "available_capacity": 0,
                    "min_age_limit": 45,
                    "vaccine": "COVISHIELD",
                    "slots": [
                        "08:00AM-10:00AM",
                        "10:00AM-12:00PM",
                        "12:00PM-02:00PM",
                        "02:00PM-06:30PM"
                    ],
                    "available_capacity_dose1": 0,
                    "available_capacity_dose2": 0
                }
            ]
        },
        {
            "center_id": 593127,
            "name": "CISF KRTC MUNDALI",
            "address": "CISF KRTC MUNDALI",
            "state_name": "Odisha",
            "district_name": "Cuttack",
            "block_name": "Baranga",
            "pincode": 754006,
            "lat": 0,
            "long": 0,
            "from": "08:00:00",
            "to": "18:00:00",
            "fee_type": "Free",
            "sessions": [
                {
                    "session_id": "53e567ed-1846-4c11-90fa-9ab103e5d8fb",
                    "date": "25-05-2021",
                    "available_capacity": 0,
                    "min_age_limit": 45,
                    "vaccine": "COVISHIELD",
                    "slots": [
                        "08:00AM-10:00AM",
                        "10:00AM-12:00PM",
                        "12:00PM-02:00PM",
                        "02:00PM-06:00PM"
                    ],
                    "available_capacity_dose1": 0,
                    "available_capacity_dose2": 0
                },
                {
                    "session_id": "e08ee6b0-0993-491c-99e5-086fceb0cc68",
                    "date": "26-05-2021",
                    "available_capacity": 0,
                    "min_age_limit": 45,
                    "vaccine": "COVISHIELD",
                    "slots": [
                        "08:00AM-10:00AM",
                        "10:00AM-12:00PM",
                        "12:00PM-02:00PM",
                        "02:00PM-06:00PM"
                    ],
                    "available_capacity_dose1": 0,
                    "available_capacity_dose2": 0
                }
            ]
        }
    ]
}